simulation/qsim/FPU.msim.vcd
$comment
	File created using the following command:
		vcd file FPU.msim.vcd -direction
$end
$date
	Fri Jun 28 17:18:51 2024
$end
$version
	ModelSim Version 10.1d
$end
$timescale
	1ps
$end
$scope module fp_mul_vlg_vec_tst $end
$var reg 8 ! a [7:0] $end
$var reg 8 " b [7:0] $end
$var reg 1 # clk $end
$var reg 1 $ start $end
$var wire 1 % out [7] $end
$var wire 1 & out [6] $end
$var wire 1 ' out [5] $end
$var wire 1 ( out [4] $end
$var wire 1 ) out [3] $end
$var wire 1 * out [2] $end
$var wire 1 + out [1] $end
$var wire 1 , out [0] $end
$var wire 1 - ready $end
$var wire 1 . sampler $end
$scope module i1 $end
$var wire 1 / gnd $end
$var wire 1 0 vcc $end
$var wire 1 1 unknown $end
$var tri1 1 2 devclrn $end
$var tri1 1 3 devpor $end
$var tri1 1 4 devoe $end
$var wire 1 5 inst46|LPM_ADD_SUB_component|adder|result_node|cs_buffer[1]~20 $end
$var wire 1 6 inst35|LPM_ADD_SUB_component|adder|result_node|cs_buffer[0]~20 $end
$var wire 1 7 inst|inst~0_combout $end
$var wire 1 8 inst20~0_combout $end
$var wire 1 9 inst|inst5~0_combout $end
$var wire 1 : start~combout $end
$var wire 1 ; inst11|inst3|$00000|auto_generated|result_node[0]~0_combout $end
$var wire 1 < clk~combout $end
$var wire 1 = inst11|inst3|$00000|auto_generated|result_node[0]~1_combout $end
$var wire 1 > inst11|inst3|$00000|auto_generated|result_node[0]~2_combout $end
$var wire 1 ? inst4|inst5~0_combout $end
$var wire 1 @ inst4|inst~0_combout $end
$var wire 1 A inst20~1_combout $end
$var wire 1 B inst13~combout $end
$var wire 1 C inst20~5_combout $end
$var wire 1 D inst20~3_combout $end
$var wire 1 E inst20~4_combout $end
$var wire 1 F inst5|$00000|auto_generated|result_node[7]~0_combout $end
$var wire 1 G inst9|LPM_ADD_SUB_component|adder|result_node|cs_buffer[0]~2 $end
$var wire 1 H inst9|LPM_ADD_SUB_component|adder|result_node|cs_buffer[0]~2COUT1_31 $end
$var wire 1 I inst9|LPM_ADD_SUB_component|adder|result_node|cs_buffer[0]~12 $end
$var wire 1 J inst9|LPM_ADD_SUB_component|adder|result_node|cs_buffer[0]~12COUT1_33 $end
$var wire 1 K inst9|LPM_ADD_SUB_component|adder|result_node|cs_buffer[0]~5_combout $end
$var wire 1 L inst9|LPM_ADD_SUB_component|adder|result_node|cs_buffer[0]~10_combout $end
$var wire 1 M inst9|LPM_ADD_SUB_component|adder|result_node|cs_buffer[0]~0_combout $end
$var wire 1 N inst22|LPM_ADD_SUB_component|adder|result_node|cs_buffer[0]~2 $end
$var wire 1 O inst22|LPM_ADD_SUB_component|adder|result_node|cs_buffer[0]~2COUT1_31 $end
$var wire 1 P inst22|LPM_ADD_SUB_component|adder|result_node|cs_buffer[0]~12 $end
$var wire 1 Q inst22|LPM_ADD_SUB_component|adder|result_node|cs_buffer[0]~12COUT1_33 $end
$var wire 1 R inst22|LPM_ADD_SUB_component|adder|result_node|cs_buffer[0]~5_combout $end
$var wire 1 S inst22|LPM_ADD_SUB_component|adder|result_node|cs_buffer[0]~0_combout $end
$var wire 1 T inst23|LPM_ADD_SUB_component|adder|result_node|cs_buffer[0]~7_combout $end
$var wire 1 U inst22|LPM_ADD_SUB_component|adder|result_node|cs_buffer[0]~10_combout $end
$var wire 1 V inst29|LPM_ADD_SUB_component|adder|result_node|cout[1]~COUT1_3 $end
$var wire 1 W inst29|LPM_ADD_SUB_component|adder|result_node|cs_buffer[1]~5 $end
$var wire 1 X inst9|LPM_ADD_SUB_component|adder|result_node|cs_buffer[0]~7 $end
$var wire 1 Y inst9|LPM_ADD_SUB_component|adder|result_node|cs_buffer[0]~7COUT1_35 $end
$var wire 1 Z inst9|LPM_ADD_SUB_component|adder|result_node|cs_buffer[0]~20_combout $end
$var wire 1 [ inst22|LPM_ADD_SUB_component|adder|result_node|cs_buffer[0]~7 $end
$var wire 1 \ inst22|LPM_ADD_SUB_component|adder|result_node|cs_buffer[0]~7COUT1_35 $end
$var wire 1 ] inst22|LPM_ADD_SUB_component|adder|result_node|cs_buffer[0]~15_combout $end
$var wire 1 ^ inst23|LPM_ADD_SUB_component|adder|result_node|cs_buffer[0]~6_combout $end
$var wire 1 _ inst29|LPM_ADD_SUB_component|adder|result_node|cs_buffer[2]~1_combout $end
$var wire 1 ` inst29|LPM_ADD_SUB_component|adder|result_node|cs_buffer[1]~4_cout0 $end
$var wire 1 a inst29|LPM_ADD_SUB_component|adder|result_node|cs_buffer[1]~4COUT1_11 $end
$var wire 1 b inst32|LPM_ADD_SUB_component|adder|result_node|cout[2]~COUT1_3 $end
$var wire 1 c inst32|LPM_ADD_SUB_component|adder|result_node|cs_buffer[2]~1 $end
$var wire 1 d inst23|LPM_ADD_SUB_component|adder|result_node|cs_buffer[0]~0_combout $end
$var wire 1 e inst23|LPM_ADD_SUB_component|adder|result_node|cs_buffer[0]~5_combout $end
$var wire 1 f inst14|LPM_COMPARE_component|auto_generated|op_1~0_combout $end
$var wire 1 g inst11|inst11|LPM_ADD_SUB_component|adder|result_node|cs_buffer[1]~30_combout $end
$var wire 1 h inst11|inst11|LPM_ADD_SUB_component|adder|result_node|cs_buffer[1]~32 $end
$var wire 1 i inst11|inst11|LPM_ADD_SUB_component|adder|result_node|cs_buffer[1]~32COUT1_42 $end
$var wire 1 j inst11|inst11|LPM_ADD_SUB_component|adder|result_node|cs_buffer[1]~20_combout $end
$var wire 1 k inst11|inst11|LPM_ADD_SUB_component|adder|result_node|cs_buffer[1]~22 $end
$var wire 1 l inst11|inst11|LPM_ADD_SUB_component|adder|result_node|cs_buffer[1]~22COUT1_44 $end
$var wire 1 m inst11|inst11|LPM_ADD_SUB_component|adder|result_node|cs_buffer[1]~25_combout $end
$var wire 1 n inst11|inst11|LPM_ADD_SUB_component|adder|result_node|cs_buffer[1]~27 $end
$var wire 1 o inst11|inst11|LPM_ADD_SUB_component|adder|result_node|cs_buffer[1]~27COUT1_46 $end
$var wire 1 p inst11|inst11|LPM_ADD_SUB_component|adder|result_node|cs_buffer[1]~15_combout $end
$var wire 1 q inst11|inst11|LPM_ADD_SUB_component|adder|result_node|cs_buffer[1]~17 $end
$var wire 1 r inst11|inst11|LPM_ADD_SUB_component|adder|result_node|cs_buffer[1]~10_combout $end
$var wire 1 s inst11|inst11|LPM_ADD_SUB_component|adder|result_node|cs_buffer[1]~12 $end
$var wire 1 t inst11|inst11|LPM_ADD_SUB_component|adder|result_node|cs_buffer[1]~12COUT1_48 $end
$var wire 1 u inst11|inst11|LPM_ADD_SUB_component|adder|result_node|cs_buffer[1]~5_combout $end
$var wire 1 v inst11|inst11|LPM_ADD_SUB_component|adder|result_node|cs_buffer[1]~7 $end
$var wire 1 w inst11|inst11|LPM_ADD_SUB_component|adder|result_node|cs_buffer[1]~7COUT1_50 $end
$var wire 1 x inst11|inst11|LPM_ADD_SUB_component|adder|result_node|cs_buffer[1]~0_combout $end
$var wire 1 y inst30~0_combout $end
$var wire 1 z inst23|LPM_ADD_SUB_component|adder|result_node|cs_buffer[0]~4_combout $end
$var wire 1 { inst9|LPM_ADD_SUB_component|adder|result_node|cs_buffer[0]~22 $end
$var wire 1 | inst9|LPM_ADD_SUB_component|adder|result_node|cs_buffer[0]~22COUT1_37 $end
$var wire 1 } inst9|LPM_ADD_SUB_component|adder|result_node|cs_buffer[0]~15_combout $end
$var wire 1 ~ inst22|LPM_ADD_SUB_component|adder|result_node|cs_buffer[0]~17 $end
$var wire 1 !! inst22|LPM_ADD_SUB_component|adder|result_node|cs_buffer[0]~17COUT1_37 $end
$var wire 1 "! inst22|LPM_ADD_SUB_component|adder|result_node|cs_buffer[0]~20_combout $end
$var wire 1 #! inst23|LPM_ADD_SUB_component|adder|result_node|cs_buffer[0]~3_combout $end
$var wire 1 $! inst29|LPM_ADD_SUB_component|adder|result_node|cs_buffer[2]~0_combout $end
$var wire 1 %! inst30~combout $end
$var wire 1 &! inst31|$00000|auto_generated|result_node[12]~3_combout $end
$var wire 1 '! inst31|$00000|auto_generated|result_node[11]~2_combout $end
$var wire 1 (! inst31|$00000|auto_generated|result_node[7]~1_combout $end
$var wire 1 )! inst38~2_combout $end
$var wire 1 *! inst38~4_combout $end
$var wire 1 +! inst31|$00000|auto_generated|result_node[10]~0_combout $end
$var wire 1 ,! inst38~3_combout $end
$var wire 1 -! inst41|LPM_ADD_SUB_component|adder|result_node|cout[1]~COUT1_3 $end
$var wire 1 .! inst41|LPM_ADD_SUB_component|adder|result_node|cs_buffer[1]~4 $end
$var wire 1 /! inst41|LPM_ADD_SUB_component|adder|result_node|cs_buffer[2]~0_combout $end
$var wire 1 0! inst40|$00000|auto_generated|result_node[12]~8_combout $end
$var wire 1 1! inst40|$00000|auto_generated|result_node[10]~2_combout $end
$var wire 1 2! inst43~0_combout $end
$var wire 1 3! inst40|$00000|auto_generated|result_node[5]~4_combout $end
$var wire 1 4! inst40|$00000|auto_generated|result_node[7]~5_combout $end
$var wire 1 5! inst40|$00000|auto_generated|result_node[9]~3_combout $end
$var wire 1 6! inst43~1_combout $end
$var wire 1 7! inst40|$00000|auto_generated|result_node[11]~12_combout $end
$var wire 1 8! inst46|LPM_ADD_SUB_component|adder|result_node|cout[0]~COUT1_3 $end
$var wire 1 9! inst46|LPM_ADD_SUB_component|adder|result_node|cs_buffer[1]~25_combout $end
$var wire 1 :! inst46|LPM_ADD_SUB_component|adder|result_node|cs_buffer[1]~22_cout0 $end
$var wire 1 ;! inst46|LPM_ADD_SUB_component|adder|result_node|cs_buffer[1]~22COUT1_32 $end
$var wire 1 <! inst46|LPM_ADD_SUB_component|adder|result_node|cs_buffer[1]~12 $end
$var wire 1 =! inst46|LPM_ADD_SUB_component|adder|result_node|cs_buffer[1]~12COUT1_34 $end
$var wire 1 >! inst46|LPM_ADD_SUB_component|adder|result_node|cs_buffer[1]~17 $end
$var wire 1 ?! inst46|LPM_ADD_SUB_component|adder|result_node|cs_buffer[1]~17COUT1_36 $end
$var wire 1 @! inst46|LPM_ADD_SUB_component|adder|result_node|cs_buffer[1]~2 $end
$var wire 1 A! inst46|LPM_ADD_SUB_component|adder|result_node|cs_buffer[1]~2COUT1_38 $end
$var wire 1 B! inst46|LPM_ADD_SUB_component|adder|result_node|cs_buffer[1]~5_combout $end
$var wire 1 C! inst3|$00000|auto_generated|result_node[0]~8_combout $end
$var wire 1 D! inst28|LPM_COMPARE_component|auto_generated|op_1~0_combout $end
$var wire 1 E! inst46|LPM_ADD_SUB_component|adder|result_node|cs_buffer[1]~0_combout $end
$var wire 1 F! inst46|LPM_ADD_SUB_component|adder|result_node|cs_buffer[1]~10_combout $end
$var wire 1 G! inst46|LPM_ADD_SUB_component|adder|result_node|cs_buffer[1]~15_combout $end
$var wire 1 H! inst53~0_combout $end
$var wire 1 I! inst40|$00000|auto_generated|result_node[4]~6_combout $end
$var wire 1 J! inst31|$00000|auto_generated|result_node[6]~4_combout $end
$var wire 1 K! inst40|$00000|auto_generated|result_node[6]~7_combout $end
$var wire 1 L! inst3|$00000|auto_generated|result_node[7]~9_combout $end
$var wire 1 M! inst40|$00000|auto_generated|result_node[5]~9_combout $end
$var wire 1 N! inst3|$00000|auto_generated|result_node[6]~10_combout $end
$var wire 1 O! inst7|LPM_CLSHIFT_component|auto_generated|sbit_w[20]~4_combout $end
$var wire 1 P! inst7|LPM_CLSHIFT_component|auto_generated|sbit_w[22]~9_combout $end
$var wire 1 Q! inst3|$00000|auto_generated|result_node[6]~11_combout $end
$var wire 1 R! inst3|$00000|auto_generated|result_node[3]~12_combout $end
$var wire 1 S! inst23|LPM_ADD_SUB_component|adder|result_node|cs_buffer[0]~8_combout $end
$var wire 1 T! inst7|LPM_CLSHIFT_component|auto_generated|sbit_w[21]~5_combout $end
$var wire 1 U! inst40|$00000|auto_generated|result_node[4]~10_combout $end
$var wire 1 V! inst3|$00000|auto_generated|result_node[5]~13_combout $end
$var wire 1 W! inst3|$00000|auto_generated|result_node[5]~14_combout $end
$var wire 1 X! inst3|$00000|auto_generated|result_node[3]~15_combout $end
$var wire 1 Y! inst3|$00000|auto_generated|result_node[4]~16_combout $end
$var wire 1 Z! inst48~2_combout $end
$var wire 1 [! inst7|LPM_CLSHIFT_component|auto_generated|sbit_w[20]~10_combout $end
$var wire 1 \! inst3|$00000|auto_generated|result_node[4]~17_combout $end
$var wire 1 ]! inst3|$00000|auto_generated|result_node[0]~27_combout $end
$var wire 1 ^! inst3|$00000|auto_generated|result_node[0]~22_combout $end
$var wire 1 _! inst7|LPM_CLSHIFT_component|auto_generated|sbit_w[10]~8_combout $end
$var wire 1 `! inst3|$00000|auto_generated|result_node[0]~23_combout $end
$var wire 1 a! inst7|LPM_CLSHIFT_component|auto_generated|sbit_w[11]~6_combout $end
$var wire 1 b! inst3|$00000|auto_generated|result_node[1]~24_combout $end
$var wire 1 c! inst3|$00000|auto_generated|result_node[1]~25_combout $end
$var wire 1 d! inst48~5_combout $end
$var wire 1 e! inst48~7_combout $end
$var wire 1 f! inst48~6_combout $end
$var wire 1 g! inst40|$00000|auto_generated|result_node[2]~11_combout $end
$var wire 1 h! inst3|$00000|auto_generated|result_node[3]~19_combout $end
$var wire 1 i! inst3|$00000|auto_generated|result_node[3]~26_combout $end
$var wire 1 j! inst7|LPM_CLSHIFT_component|auto_generated|sbit_w[21]~7_combout $end
$var wire 1 k! inst3|$00000|auto_generated|result_node[3]~18_combout $end
$var wire 1 l! inst3|$00000|auto_generated|result_node[3]~20_combout $end
$var wire 1 m! inst48~3_combout $end
$var wire 1 n! inst3|$00000|auto_generated|result_node[3]~21_combout $end
$var wire 1 o! inst48~4_combout $end
$var wire 1 p! inst49~combout $end
$var wire 1 q! inst35|LPM_ADD_SUB_component|adder|result_node|cs_buffer[0]~22_cout0 $end
$var wire 1 r! inst35|LPM_ADD_SUB_component|adder|result_node|cs_buffer[0]~22COUT1_31 $end
$var wire 1 s! inst35|LPM_ADD_SUB_component|adder|result_node|cs_buffer[0]~17 $end
$var wire 1 t! inst35|LPM_ADD_SUB_component|adder|result_node|cs_buffer[0]~17COUT1_33 $end
$var wire 1 u! inst35|LPM_ADD_SUB_component|adder|result_node|cs_buffer[0]~12 $end
$var wire 1 v! inst35|LPM_ADD_SUB_component|adder|result_node|cs_buffer[0]~12COUT1_35 $end
$var wire 1 w! inst35|LPM_ADD_SUB_component|adder|result_node|cs_buffer[0]~7 $end
$var wire 1 x! inst35|LPM_ADD_SUB_component|adder|result_node|cs_buffer[0]~7COUT1_37 $end
$var wire 1 y! inst35|LPM_ADD_SUB_component|adder|result_node|cs_buffer[0]~0_combout $end
$var wire 1 z! inst53~1_combout $end
$var wire 1 {! inst5|$00000|auto_generated|result_node[0]~1_combout $end
$var wire 1 |! inst35|LPM_ADD_SUB_component|adder|result_node|cs_buffer[0]~5_combout $end
$var wire 1 }! inst35|LPM_ADD_SUB_component|adder|result_node|cs_buffer[0]~10_combout $end
$var wire 1 ~! inst5|$00000|auto_generated|result_node[1]~2_combout $end
$var wire 1 !" inst35|LPM_ADD_SUB_component|adder|result_node|cs_buffer[0]~15_combout $end
$var wire 1 "" inst5|$00000|auto_generated|result_node[0]~3_combout $end
$var wire 1 #" inst11|inst9|dffs [7] $end
$var wire 1 $" inst11|inst9|dffs [6] $end
$var wire 1 %" inst11|inst9|dffs [5] $end
$var wire 1 &" inst11|inst9|dffs [4] $end
$var wire 1 '" inst11|inst9|dffs [3] $end
$var wire 1 (" inst11|inst9|dffs [2] $end
$var wire 1 )" inst11|inst9|dffs [1] $end
$var wire 1 *" inst11|inst9|dffs [0] $end
$var wire 1 +" inst5|$00000|auto_generated|result_node [7] $end
$var wire 1 ," inst5|$00000|auto_generated|result_node [6] $end
$var wire 1 -" inst5|$00000|auto_generated|result_node [5] $end
$var wire 1 ." inst5|$00000|auto_generated|result_node [4] $end
$var wire 1 /" inst5|$00000|auto_generated|result_node [3] $end
$var wire 1 0" inst5|$00000|auto_generated|result_node [2] $end
$var wire 1 1" inst5|$00000|auto_generated|result_node [1] $end
$var wire 1 2" inst5|$00000|auto_generated|result_node [0] $end
$var wire 1 3" inst22|LPM_ADD_SUB_component|adder|unreg_res_node [4] $end
$var wire 1 4" inst22|LPM_ADD_SUB_component|adder|unreg_res_node [3] $end
$var wire 1 5" inst22|LPM_ADD_SUB_component|adder|unreg_res_node [2] $end
$var wire 1 6" inst22|LPM_ADD_SUB_component|adder|unreg_res_node [1] $end
$var wire 1 7" inst22|LPM_ADD_SUB_component|adder|unreg_res_node [0] $end
$var wire 1 8" inst29|LPM_ADD_SUB_component|adder|result_node|cout [4] $end
$var wire 1 9" inst29|LPM_ADD_SUB_component|adder|result_node|cout [3] $end
$var wire 1 :" inst29|LPM_ADD_SUB_component|adder|result_node|cout [2] $end
$var wire 1 ;" inst29|LPM_ADD_SUB_component|adder|result_node|cout [1] $end
$var wire 1 <" inst29|LPM_ADD_SUB_component|adder|result_node|cout [0] $end
$var wire 1 =" inst29|LPM_ADD_SUB_component|adder|result_node|cs_buffer [4] $end
$var wire 1 >" inst29|LPM_ADD_SUB_component|adder|result_node|cs_buffer [3] $end
$var wire 1 ?" inst29|LPM_ADD_SUB_component|adder|result_node|cs_buffer [2] $end
$var wire 1 @" inst29|LPM_ADD_SUB_component|adder|result_node|cs_buffer [1] $end
$var wire 1 A" inst29|LPM_ADD_SUB_component|adder|result_node|cs_buffer [0] $end
$var wire 1 B" inst32|LPM_ADD_SUB_component|adder|result_node|cout [4] $end
$var wire 1 C" inst32|LPM_ADD_SUB_component|adder|result_node|cout [3] $end
$var wire 1 D" inst32|LPM_ADD_SUB_component|adder|result_node|cout [2] $end
$var wire 1 E" inst32|LPM_ADD_SUB_component|adder|result_node|cout [1] $end
$var wire 1 F" inst32|LPM_ADD_SUB_component|adder|result_node|cout [0] $end
$var wire 1 G" inst32|LPM_ADD_SUB_component|adder|result_node|cs_buffer [4] $end
$var wire 1 H" inst32|LPM_ADD_SUB_component|adder|result_node|cs_buffer [3] $end
$var wire 1 I" inst32|LPM_ADD_SUB_component|adder|result_node|cs_buffer [2] $end
$var wire 1 J" inst32|LPM_ADD_SUB_component|adder|result_node|cs_buffer [1] $end
$var wire 1 K" inst32|LPM_ADD_SUB_component|adder|result_node|cs_buffer [0] $end
$var wire 1 L" inst41|LPM_ADD_SUB_component|adder|result_node|cout [4] $end
$var wire 1 M" inst41|LPM_ADD_SUB_component|adder|result_node|cout [3] $end
$var wire 1 N" inst41|LPM_ADD_SUB_component|adder|result_node|cout [2] $end
$var wire 1 O" inst41|LPM_ADD_SUB_component|adder|result_node|cout [1] $end
$var wire 1 P" inst41|LPM_ADD_SUB_component|adder|result_node|cout [0] $end
$var wire 1 Q" inst41|LPM_ADD_SUB_component|adder|result_node|cs_buffer [4] $end
$var wire 1 R" inst41|LPM_ADD_SUB_component|adder|result_node|cs_buffer [3] $end
$var wire 1 S" inst41|LPM_ADD_SUB_component|adder|result_node|cs_buffer [2] $end
$var wire 1 T" inst41|LPM_ADD_SUB_component|adder|result_node|cs_buffer [1] $end
$var wire 1 U" inst41|LPM_ADD_SUB_component|adder|result_node|cs_buffer [0] $end
$var wire 1 V" inst46|LPM_ADD_SUB_component|adder|result_node|cout [4] $end
$var wire 1 W" inst46|LPM_ADD_SUB_component|adder|result_node|cout [3] $end
$var wire 1 X" inst46|LPM_ADD_SUB_component|adder|result_node|cout [2] $end
$var wire 1 Y" inst46|LPM_ADD_SUB_component|adder|result_node|cout [1] $end
$var wire 1 Z" inst46|LPM_ADD_SUB_component|adder|result_node|cout [0] $end
$var wire 1 [" inst46|LPM_ADD_SUB_component|adder|result_node|cs_buffer [4] $end
$var wire 1 \" inst46|LPM_ADD_SUB_component|adder|result_node|cs_buffer [3] $end
$var wire 1 ]" inst46|LPM_ADD_SUB_component|adder|result_node|cs_buffer [2] $end
$var wire 1 ^" inst46|LPM_ADD_SUB_component|adder|result_node|cs_buffer [1] $end
$var wire 1 _" inst46|LPM_ADD_SUB_component|adder|result_node|cs_buffer [0] $end
$var wire 1 `" b~combout [7] $end
$var wire 1 a" b~combout [6] $end
$var wire 1 b" b~combout [5] $end
$var wire 1 c" b~combout [4] $end
$var wire 1 d" b~combout [3] $end
$var wire 1 e" b~combout [2] $end
$var wire 1 f" b~combout [1] $end
$var wire 1 g" b~combout [0] $end
$var wire 1 h" a~combout [7] $end
$var wire 1 i" a~combout [6] $end
$var wire 1 j" a~combout [5] $end
$var wire 1 k" a~combout [4] $end
$var wire 1 l" a~combout [3] $end
$var wire 1 m" a~combout [2] $end
$var wire 1 n" a~combout [1] $end
$var wire 1 o" a~combout [0] $end
$var wire 1 p" inst11|inst|dffs [3] $end
$var wire 1 q" inst11|inst|dffs [2] $end
$var wire 1 r" inst11|inst|dffs [1] $end
$var wire 1 s" inst11|inst|dffs [0] $end
$var wire 1 t" inst11|inst8|dffs [7] $end
$var wire 1 u" inst11|inst8|dffs [6] $end
$var wire 1 v" inst11|inst8|dffs [5] $end
$var wire 1 w" inst11|inst8|dffs [4] $end
$var wire 1 x" inst11|inst8|dffs [3] $end
$var wire 1 y" inst11|inst8|dffs [2] $end
$var wire 1 z" inst11|inst8|dffs [1] $end
$var wire 1 {" inst11|inst8|dffs [0] $end
$var wire 1 |" inst3|$00000|auto_generated|result_node [12] $end
$var wire 1 }" inst3|$00000|auto_generated|result_node [11] $end
$var wire 1 ~" inst3|$00000|auto_generated|result_node [10] $end
$var wire 1 !# inst3|$00000|auto_generated|result_node [9] $end
$var wire 1 "# inst3|$00000|auto_generated|result_node [8] $end
$var wire 1 ## inst3|$00000|auto_generated|result_node [7] $end
$var wire 1 $# inst3|$00000|auto_generated|result_node [6] $end
$var wire 1 %# inst3|$00000|auto_generated|result_node [5] $end
$var wire 1 &# inst3|$00000|auto_generated|result_node [4] $end
$var wire 1 '# inst3|$00000|auto_generated|result_node [3] $end
$var wire 1 (# inst3|$00000|auto_generated|result_node [2] $end
$var wire 1 )# inst3|$00000|auto_generated|result_node [1] $end
$var wire 1 *# inst3|$00000|auto_generated|result_node [0] $end
$upscope $end
$upscope $end
$enddefinitions $end
#0
$dumpvars
b111100 !
b1000000 "
0#
1$
0r!
1s!
1t!
0u!
0v!
1w!
1x!
0y!
0z!
1{!
0|!
0}!
0~!
0!"
0""
0*"
0)"
0("
0'"
0&"
0%"
0$"
0#"
z2"
z1"
00"
0/"
0."
0-"
0,"
z+"
z7"
z6"
z5"
z4"
03"
z<"
1;"
z:"
z9"
z8"
zA"
1@"
z?"
z>"
z="
zF"
zE"
0D"
zC"
zB"
zK"
zJ"
0I"
zH"
zG"
zP"
0O"
zN"
zM"
zL"
zU"
1T"
zS"
zR"
zQ"
1Z"
zY"
zX"
zW"
zV"
0_"
z^"
z]"
z\"
z["
0g"
0f"
0e"
0d"
0c"
0b"
1a"
0`"
0o"
0n"
1m"
1l"
1k"
1j"
0i"
0h"
0s"
0r"
0q"
zp"
z{"
0z"
0y"
0x"
0w"
0v"
0u"
0t"
z*#
z)#
z(#
z'#
z&#
z%#
z$#
z##
0"#
z!#
z~"
z}"
z|"
0,
0+
0*
0)
0(
0'
0&
0%
0-
x.
0/
10
x1
12
13
14
15
16
07
08
09
1:
0;
0<
0=
0>
1?
0@
0A
0B
0C
0D
0E
0F
0G
0H
1I
1J
1K
1L
1M
0N
0O
1P
1Q
1R
1S
0T
1U
1V
1W
0X
0Y
0Z
0[
0\
1]
0^
0_
0`
0a
0b
0c
0d
1e
0f
0g
0h
0i
0j
1k
1l
0m
0n
0o
0p
1q
0r
0s
0t
0u
1v
1w
0x
1y
1z
1{
1|
0}
1~
1!!
0"!
0#!
1$!
1%!
0&!
0'!
0(!
1)!
0*!
1+!
1,!
0-!
0.!
1/!
00!
01!
02!
03!
04!
15!
16!
07!
18!
19!
1:!
1;!
0<!
0=!
1>!
1?!
0@!
0A!
0B!
1C!
0D!
0E!
1F!
0G!
0H!
0I!
0J!
0K!
0L!
0M!
0N!
0O!
0P!
0Q!
0R!
1S!
0T!
0U!
0V!
0W!
0X!
0Y!
0Z!
0[!
0\!
1]!
1^!
0_!
0`!
0a!
1b!
0c!
0d!
0e!
0f!
0g!
0h!
0i!
0j!
0k!
0l!
0m!
0n!
0o!
0p!
0q!
$end
#5000
1#
1<
0.
1w"
1r"
1q"
1p
#10000
0$
0#
0:
0<
1.
1=
#15000
1#
1<
0.
1v"
0w"
1s"
0q"
1s
1r
0p
0=
#20000
0#
0<
1.
#25000
1#
1<
0.
1%"
1u"
0v"
0r"
1R!
13!
0y
0v
1u
1T!
14!
0%!
1L!
06!
1n!
0+!
1'!
1y!
1"#
1B!
1A!
1@!
1E!
0?!
0>!
1G!
0F!
0;!
0:!
11!
0/!
12!
1/"
1-"
1,"
1z!
0B!
0E!
1=!
1<!
1F!
1?!
1>!
0G!
02!
0{!
0z!
0,"
0?!
0>!
1G!
1."
1E!
0-"
1)
1'
1&
1-"
1,"
1{!
0E!
1H!
0&
1(
0'
0,"
0H!
1z!
1'
1&
0z!
0{!
0&
1{!
1,"
0,"
1&
0&
#30000
0#
0<
1.
#35000
1#
1<
0.
1$"
1t"
0u"
0s"
1O!
1J!
0)!
1x
1=
1P!
1K!
0,!
1>
1N!
1M!
17!
05!
04!
12!
01!
1-
1Q!
1V!
1E!
0F!
16!
0L!
0G!
1|!
1W!
1,"
0."
0V!
1L!
0"#
1B!
0A!
0@!
0E!
1G!
1F!
1;!
1:!
0y!
0-"
10"
1}!
0W!
1y!
0/"
0B!
0,"
0=!
0<!
0F!
1&
0(
0'
1~!
0}!
1-"
1?!
1>!
0G!
1*
0)
0&
0~!
1E!
0-"
1+
1'
1,"
0+
0'
1&
#40000
0#
0<
1.
#45000
1#
1<
0.
0t"
0x
#50000
0#
0<
1.
#55000
1#
1<
0.
#60000
0#
0<
1.
#65000
1#
1<
0.
#70000
0#
0<
1.
#75000
1#
1<
0.
#80000
0#
0<
1.
#85000
1#
1<
0.
#90000
0#
0<
1.
#95000
1#
1<
0.
#100000
0#
0<
1.
#105000
1#
1<
0.
#110000
0#
0<
1.
#115000
1#
1<
0.
#120000
0#
0<
1.
#125000
1#
1<
0.
#130000
0#
0<
1.
#135000
1#
1<
0.
#140000
0#
0<
1.
#145000
1#
1<
0.
#150000
0#
0<
1.
#155000
1#
1<
0.
#160000
b11100 !
b1100 !
b100 !
b0 !
b11000000 "
b10000000 "
b10100000 "
b10110000 "
b10111000 "
b10111100 "
b10111110 "
0#
1f"
1e"
1d"
1c"
1b"
0a"
1`"
0m"
0l"
0k"
0j"
0<
1.
0?
1O
1N
0S
0Q
0P
0U
1\
1[
0R
0]
1F
19
0M
18
0L
0K
1D
1Z!
0O!
08!
0Z"
1_"
1d
1i!
1[!
0S!
0P!
0C!
0V
0;"
0@"
1]
0]!
0z
0e
1b
1D"
1I"
0O
0N
1S
1M
1%
1e!
0[!
09!
1"#
0T!
1D!
1f
1c!
1a
1`
0W
15!
1-!
1O"
0T"
1*!
1z
1_
1`!
0$!
1+!
1c
1Q
1P
1U
0Z!
1O!
18!
1Z"
0_"
0d
1O
1N
0S
0^!
0;!
0:!
1/"
0b!
0,"
0n!
0Q!
0L!
1d!
0b
0D"
0I"
0+!
1$!
0f
1F!
1.!
0D!
0'!
1&!
11!
1/!
0\
0[
1R
0i!
0e!
1S!
1P!
1V
1;"
1@"
19!
0Q
0P
0U
1Z!
0O!
08!
0Z"
1_"
0*!
1d
0`!
0F!
0c!
0|!
0y!
0c
07!
01!
0&!
1."
1,"
1n!
1Q!
1L!
10!
1*!
1G!
0]
1e
1b
1D"
1I"
1T!
0a
0`
1W
05!
0-!
0O"
1T"
1;!
1:!
1\
1[
0R
1i!
1e!
0S!
0P!
0V
0;"
0@"
09!
1)
0&
0d!
0."
00"
0/"
0,"
0E!
0G!
02!
00!
0*!
1|!
1y!
1B!
0z
0_
1k!
1c
1b!
0.!
15!
1]
0e
0T!
1a
1`
0W
1-!
1O"
0T"
0;!
0:!
1(
1&
0B!
10"
1/"
1z!
1D!
0$!
1'!
1c!
0/!
1z
1_
0k!
0b!
0b
0D"
0I"
1.!
0(
0*
0)
0&
0z!
00"
0{!
0n!
0Q!
0L!
1&!
17!
12!
1d!
0D!
1$!
0'!
0c!
0c
1/!
1*
1)
10"
1{!
1."
1-"
1,"
0|!
0y!
10!
1*!
1E!
1n!
1Q!
1L!
0&!
07!
0d!
0*
0/"
0."
0-"
0,"
00"
1B!
1|!
1y!
02!
00!
0*!
0E!
1*
1(
1'
1&
1z!
10"
1/"
0B!
0)
0(
0'
0&
0*
00"
0{!
0z!
1*
1)
1."
1-"
1,"
10"
1{!
0*
0."
0-"
0,"
1(
1'
1&
1*
0(
0'
0&
#165000
1#
1<
0.
#170000
1$
0#
1:
0<
1.
0=
1;
#175000
1#
1<
0.
0$"
0%"
1w"
1x"
1y"
0R!
0J!
1)!
1y
1v
0u
0Z!
03!
0s
0r
1p
1m
1j
0i!
0K!
0e!
0M!
0N!
0L!
0Q!
0y!
0|!
0/"
00"
0)
0*
#180000
0$
0#
0:
0<
1.
1=
0;
#185000
1#
1<
0.
1v"
0y"
1s
1r
0j
#190000
0#
0<
1.
#195000
1#
1<
0.
1u"
0x"
0v
1u
0m
#200000
0#
0<
1.
#205000
1#
1<
0.
1t"
0w"
1x
0p
#210000
0#
0<
1.
#215000
1#
1<
0.
0v"
0s
0r
1v
#220000
0#
0<
1.
#225000
1#
1<
0.
0u"
0u
#230000
0#
0<
1.
#235000
1#
1<
0.
0t"
0x
#240000
0#
0<
1.
#245000
1#
1<
0.
#250000
0#
0<
1.
#255000
1#
1<
0.
#260000
0#
0<
1.
#265000
1#
1<
0.
